{
  "images" : [
    {
      "idiom" : "universal",
      "scale" : "1x"
    },
    {
      "idiom" : "universal",
      "filename" : "降价通知icon（未点击）@2x.png",
      "scale" : "2x"
    },
    {
      "idiom" : "universal",
      "filename" : "降价通知icon（未点击）@3x.png",
      "scale" : "3x"
    }
  ],
  "info" : {
    "version" : 1,
    "author" : "xcode"
  }
}